dump.vcd
$date
    May  5, 2024  12:13:24
$end
$version
    TOOL:	xmsim	23.09-s001
$end
$timescale
    1 ns
$end

$scope module tb_s2p $end
$var parameter 32 !    N $end
$var reg       1 "    clk $end
$var reg       1 #    reset $end

$scope module s2p_interface_ins $end
$var wire      1 $    clk  $end
$var wire      1 %    reset  $end
$var parameter 32 &    N $end
$var reg       1 '    data_in $end
$var reg       1 (    full_tick $end
$var reg       8 )    data_out [7:0] $end
$upscope $end


$scope module s2p_top_in $end
$var parameter 32 *    N $end
$upscope $end


$scope module s2p_v1_ins $end
$var parameter 32 +    N $end
$var wire      1 $    clk  $end
$var wire      1 %    reset  $end
$var wire      1 ,    data_in  $end
$var wire      1 -    full_tick  $end
$var reg       8 .    data_out [7:0] $end
$var reg       8 /    data_reg [7:0] $end
$var reg       8 0    data_next [7:0] $end
$var reg       7 1    count_reg [6:0] $end
$var reg       7 2    count_next [6:0] $end
$var reg       1 3    full_reg $end
$var reg       1 4    full_next $end
$upscope $end

$upscope $end

$enddefinitions $end
$dumpvars
b1000 +
b1000 *
b1000 &
b1000 !
0"
1#
0$
1%
x'
0(
b0 )
x,
0-
b0 .
b0 /
b0x 0
b0 1
b1 2
03
04
$end
#5
1"
1$
0'
0,
b0 2
b0 0
b1 2
#10
0#
0"
0$
0%
1'
1,
b0 2
b1 0
b1 2
#15
1"
1$
b1 1
b1 /
b11 0
b10 2
0'
0,
b1 2
b1 0
b10 2
#20
0"
0$
#25
1"
1$
b10 1
b11 2
1'
1,
b10 2
b101 0
b11 2
#30
0"
0$
#35
1"
1$
b11 1
b101 /
b1101 0
b100 2
#40
0"
0$
#45
1"
1$
b100 1
b1101 /
b11101 0
b101 2
0'
0,
b100 2
b1101 0
b101 2
#50
0"
0$
#55
1"
1$
b101 1
b110 2
#60
0"
0$
#65
1"
1$
b110 1
b111 2
#70
0"
0$
#75
1"
1$
b111 1
b0 2
14
1'
1,
b111 2
04
b10001101 0
b0 2
14
#80
0"
0$
#85
1"
1$
b0 1
13
b10001101 /
b10001101 .
b1 2
04
1-
b10001101 )
1(
0'
0,
b0 2
14
b10001100 0
b1 2
04
#90
0"
0$
#95
1"
1$
b1 1
03
b10001100 /
b10 2
0-
0(
#100
0"
0$
#105
1"
1$
b10 1
b10001000 0
b11 2
1'
1,
b10 2
b10001100 0
b11 2
#110
0"
0$
#115
1"
1$
b11 1
b100 2
0'
0,
b11 2
b10000100 0
b100 2
#120
0"
0$
#125
1"
1$
b100 1
b10000100 /
b101 2
#130
0"
0$
#135
1"
1$
b101 1
b110 2
1'
1,
b101 2
b10100100 0
b110 2
#140
0"
0$
#145
1"
1$
b110 1
b10100100 /
b11100100 0
b111 2
#150
0"
0$
#155
1"
1$
b111 1
b11100100 /
b0 2
14
0'
0,
b111 2
04
b1100100 0
b0 2
14
#160
0"
0$
#165
1"
1$
b0 1
13
b1100100 /
b1100100 .
b1 2
04
1-
b1100100 )
1(
#170
0"
0$
#175
1"
1$
b1 1
03
b10 2
0-
0(
#180
0"
0$
#185
1"
1$
b10 1
b1100000 0
b11 2
#190
0"
0$
#195
1"
1$
b11 1
b1100000 /
b100 2
#200
0"
0$
#205
1"
1$
b100 1
b101 2
1'
1,
b100 2
b1110000 0
b101 2
#210
0"
0$
#215
1"
1$
b101 1
b1110000 /
b110 2
#220
0"
0$
#225
1"
1$
b110 1
b111 2
#230
0"
0$
#235
1"
1$
b111 1
b11110000 0
b0 2
14
0'
0,
b111 2
04
b1110000 0
b0 2
14
#240
0"
0$
#245
1"
1$
b0 1
13
b1110000 .
b1 2
04
1-
b1110000 )
1(
#250
0"
0$
#255
1"
1$
b1 1
03
b10 2
0-
0(
#260
0"
0$
#265
1"
1$
b10 1
b11 2
1'
1,
b10 2
b1110100 0
b11 2
#270
0"
0$
#275
1"
1$
b11 1
b1110100 /
b1111100 0
b100 2
0'
0,
b11 2
b1110100 0
b100 2
#280
0"
0$
#285
1"
1$
b100 1
b1100100 0
b101 2
#290
0"
0$
#295
1"
1$
b101 1
b1100100 /
b1000100 0
b110 2
#300
0"
0$
#305
1"
1$
b110 1
b1000100 /
b100 0
b111 2
1'
1,
b110 2
b1000100 0
b111 2
#310
0"
0$
#315
1"
1$
b111 1
b11000100 0
b0 2
14
#320
0"
0$
#325
1"
1$
b0 1
13
b11000100 /
b11000100 .
b11000101 0
b1 2
04
1-
b11000100 )
1(
0'
0,
b0 2
14
b11000100 0
b1 2
04
#330
0"
0$
#335
1"
1$
b1 1
03
b10 2
0-
0(
#340
0"
0$
#345
1"
1$
b10 1
b11000000 0
b11 2
1'
1,
b10 2
b11000100 0
b11 2
#350
0"
0$
#355
1"
1$
b11 1
b11001100 0
b100 2
0'
0,
b11 2
b11000100 0
b100 2
#360
0"
0$
#365
1"
1$
b100 1
b101 2
1'
1,
b100 2
b11010100 0
b101 2
#370
0"
0$
#375
1"
1$
b101 1
b11010100 /
b11110100 0
b110 2
#380
0"
0$
#385
1"
1$
b110 1
b11110100 /
b111 2
#390
0"
0$
#395
1"
1$
b111 1
b0 2
14
#400
0"
0$
#405
1"
1$
b0 1
13
b11110100 .
b11110101 0
b1 2
04
1-
b11110100 )
1(
#410
0"
0$
#415
1"
1$
b1 1
03
b11110101 /
b11110111 0
b10 2
0-
0(
0'
0,
b1 2
b11110101 0
b10 2
#420
0"
0$
#425
1"
1$
b10 1
b11110001 0
b11 2
1'
1,
b10 2
b11110101 0
b11 2
#430
0"
0$
#435
1"
1$
b11 1
b11111101 0
b100 2
#440
0"
0$
#445
1"
1$
b100 1
b11111101 /
b101 2
0'
0,
b100 2
b11101101 0
b101 2
#450
0"
0$
#455
1"
1$
b101 1
b11101101 /
b11001101 0
b110 2
#460
0"
0$
#465
1"
1$
b110 1
b11001101 /
b10001101 0
b111 2
#470
0"
0$
#475
1"
1$
b111 1
b10001101 /
b1101 0
b0 2
14
1'
1,
b111 2
04
b10001101 0
b0 2
14
#480
0"
0$
#485
1"
1$
b0 1
13
b10001101 .
b1 2
04
1-
b10001101 )
1(
#490
0"
0$
#495
1"
1$
b1 1
03
b10001111 0
b10 2
0-
0(
#500
0"
0$
#505
1"
1$
b10 1
b10001111 /
b11 2
#510
0"
0$
#515
1"
1$
b11 1
b100 2
0'
0,
b11 2
b10000111 0
b100 2
#520
0"
0$
#525
1"
1$
b100 1
b10000111 /
b101 2
1'
1,
b100 2
b10010111 0
b101 2
#530
0"
0$
#535
1"
1$
b101 1
b10010111 /
b10110111 0
b110 2
0'
0,
b101 2
b10010111 0
b110 2
#540
0"
0$
#545
1"
1$
b110 1
b111 2
#550
0"
0$
#555
1"
1$
b111 1
b10111 0
b0 2
14
1'
1,
b111 2
04
b10010111 0
b0 2
14
#560
0"
0$
#565
1"
1$
b0 1
13
b10010111 .
b1 2
04
1-
b10010111 )
1(
#570
0"
0$
#575
1"
1$
b1 1
03
b10 2
0-
0(
#580
0"
0$
#585
1"
1$
b10 1
b11 2
0'
0,
b10 2
b10010011 0
b11 2
#590
0"
0$
#595
1"
1$
b11 1
b10010011 /
b100 2
#600
0"
0$
#605
1"
1$
b100 1
b10000011 0
b101 2
#610
0"
0$
#615
1"
1$
b101 1
b10000011 /
b110 2
#620
0"
0$
#625
1"
1$
b110 1
b111 2
#630
0"
0$
#635
1"
1$
b111 1
b11 0
b0 2
14
1'
1,
b111 2
04
b10000011 0
b0 2
14
#640
0"
0$
#645
1"
1$
b0 1
13
b10000011 .
b1 2
04
1-
b10000011 )
1(
0'
0,
b0 2
14
b10000010 0
b1 2
04
#650
0"
0$
#655
1"
1$
b1 1
03
b10000010 /
b10000000 0
b10 2
0-
0(
1'
1,
b1 2
b10000010 0
b10 2
#660
0"
0$
#665
1"
1$
b10 1
b10000110 0
b11 2
0'
0,
b10 2
b10000010 0
b11 2
#670
0"
0$
#675
1"
1$
b11 1
b100 2
1'
1,
b11 2
b10001010 0
b100 2
#680
0"
0$
#685
1"
1$
b100 1
b10001010 /
b10011010 0
b101 2
0'
0,
b100 2
b10001010 0
b101 2
#690
0"
0$
#695
1"
1$
b101 1
b110 2
#700
0"
0$
#705
1"
1$
b110 1
b111 2
#710
0"
0$
#715
1"
1$
b111 1
b1010 0
b0 2
14
1'
1,
b111 2
04
b10001010 0
b0 2
14
#720
0"
0$
#725
1"
1$
b0 1
13
b10001010 .
b10001011 0
b1 2
04
1-
b10001010 )
1(
#730
0"
0$
#735
1"
1$
b1 1
03
b10001011 /
b10 2
0-
0(
0'
0,
b1 2
b10001001 0
b10 2
#740
0"
0$
#745
1"
1$
b10 1
b10001001 /
b11 2
#750
0"
0$
#755
1"
1$
b11 1
b10000001 0
b100 2
1'
1,
b11 2
b10001001 0
b100 2
#760
0"
0$
#765
1"
1$
b100 1
b10011001 0
b101 2
0'
0,
b100 2
b10001001 0
b101 2
#770
0"
0$
#775
1"
1$
b101 1
b110 2
1'
1,
b101 2
b10101001 0
b110 2
#780
0"
0$
#785
1"
1$
b110 1
b10101001 /
b11101001 0
b111 2
#790
0"
0$
#795
1"
1$
b111 1
b11101001 /
b0 2
14
0'
0,
b111 2
04
b1101001 0
b0 2
14
#800
0"
0$
#805
1"
1$
b0 1
13
b1101001 /
b1101001 .
b1101000 0
b1 2
04
1-
b1101001 )
1(
#810
0"
0$
#815
1"
1$
b1 1
03
b1101000 /
b10 2
0-
0(
1'
1,
b1 2
b1101010 0
b10 2
#820
0"
0$
#825
1"
1$
b10 1
b1101010 /
b1101110 0
b11 2
#830
0"
0$
#835
1"
1$
b11 1
b1101110 /
b100 2
#840
0"
0$
#845
1"
1$
b100 1
b1111110 0
b101 2
#850
0"
0$
#855
1"
1$
b101 1
b1111110 /
b110 2
0'
0,
b101 2
b1011110 0
b110 2
#860
0"
0$
#865
1"
1$
b110 1
b1011110 /
b11110 0
b111 2
1'
1,
b110 2
b1011110 0
b111 2
#870
0"
0$
#875
1"
1$
b111 1
b11011110 0
b0 2
14
0'
0,
b111 2
04
b1011110 0
b0 2
14
#880
0"
0$
#885
1"
1$
b0 1
13
b1011110 .
b1 2
04
1-
b1011110 )
1(
#890
0"
0$
#895
1"
1$
b1 1
03
b1011100 0
b10 2
0-
0(
#900
0"
0$
#905
1"
1$
b10 1
b1011100 /
b1011000 0
b11 2
1'
1,
b10 2
b1011100 0
b11 2
#910
0"
0$
#915
1"
1$
b11 1
b100 2
0'
0,
b11 2
b1010100 0
b100 2
#920
0"
0$
#925
1"
1$
b100 1
b1010100 /
b1000100 0
b101 2
1'
1,
b100 2
b1010100 0
b101 2
#930
0"
0$
#935
1"
1$
b101 1
b1110100 0
b110 2
#940
0"
0$
#945
1"
1$
b110 1
b1110100 /
b111 2
#950
0"
0$
#955
1"
1$
b111 1
b11110100 0
b0 2
14
#960
0"
0$
#965
1"
1$
b0 1
13
b11110100 /
b11110100 .
b11110101 0
b1 2
04
1-
b11110100 )
1(
#970
0"
0$
#975
1"
1$
b1 1
03
b11110101 /
b11110111 0
b10 2
0-
0(
0'
0,
b1 2
b11110101 0
b10 2
#980
0"
0$
#985
1"
1$
b10 1
b11110001 0
b11 2
#990
0"
0$
#995
1"
1$
b11 1
b11110001 /
b100 2
